<?xml version="1.0"?>
<VTKFile type="UnstructuredGrid" version="0.1">
<UnstructuredGrid>
<FieldData>
<DataArray Name="TIME" type="Float64" format="ascii" NumberOfTuples="1">
0.000000e+00
</DataArray>
</FieldData>
<FieldData>
<DataArray Name="CYCLE" type="Int32" format="ascii" NumberOfTuples="1">
0
</DataArray>
</FieldData>
<Piece NumberOfPoints="433" NumberOfCells="128">
<Points>
<DataArray NumberOfComponents="3" type="Float64" format="ascii">
-4.043199e-06 0.000000e+00 0.000000e+00
3.121463e-03 0.000000e+00 0.000000e+00
6.246968e-03 0.000000e+00 0.000000e+00
9.372474e-03 0.000000e+00 0.000000e+00
1.249798e-02 0.000000e+00 0.000000e+00
1.562348e-02 0.000000e+00 0.000000e+00
1.874899e-02 0.000000e+00 0.000000e+00
2.187449e-02 0.000000e+00 0.000000e+00
2.500000e-02 0.000000e+00 0.000000e+00
2.812551e-02 0.000000e+00 0.000000e+00
3.125101e-02 0.000000e+00 0.000000e+00
3.437652e-02 0.000000e+00 0.000000e+00
3.750202e-02 0.000000e+00 0.000000e+00
4.062753e-02 0.000000e+00 0.000000e+00
4.375303e-02 0.000000e+00 0.000000e+00
4.687854e-02 0.000000e+00 0.000000e+00
5.000404e-02 0.000000e+00 0.000000e+00
-4.246738e-06 3.121869e-03 0.000000e+00
6.246765e-03 3.121872e-03 0.000000e+00
1.249778e-02 3.121873e-03 0.000000e+00
1.874879e-02 3.121874e-03 0.000000e+00
2.499980e-02 3.121875e-03 0.000000e+00
3.125081e-02 3.121876e-03 0.000000e+00
3.750182e-02 3.121877e-03 0.000000e+00
4.375283e-02 3.121878e-03 0.000000e+00
5.000384e-02 3.121882e-03 0.000000e+00
-4.451165e-06 6.243738e-03 0.000000e+00
3.121055e-03 6.243742e-03 0.000000e+00
6.246560e-03 6.243743e-03 0.000000e+00
9.372066e-03 6.243745e-03 0.000000e+00
1.249757e-02 6.243746e-03 0.000000e+00
1.562308e-02 6.243747e-03 0.000000e+00
1.874858e-02 6.243748e-03 0.000000e+00
2.187409e-02 6.243749e-03 0.000000e+00
2.499959e-02 6.243750e-03 0.000000e+00
2.812510e-02 6.243751e-03 0.000000e+00
3.125060e-02 6.243752e-03 0.000000e+00
3.437611e-02 6.243753e-03 0.000000e+00
3.750161e-02 6.243754e-03 0.000000e+00
4.062712e-02 6.243755e-03 0.000000e+00
4.375263e-02 6.243757e-03 0.000000e+00
4.687813e-02 6.243759e-03 0.000000e+00
5.000363e-02 6.243762e-03 0.000000e+00
-4.656123e-06 9.365609e-03 0.000000e+00
6.246356e-03 9.365615e-03 0.000000e+00
1.249737e-02 9.365619e-03 0.000000e+00
1.874838e-02 9.365622e-03 0.000000e+00
2.499939e-02 9.365625e-03 0.000000e+00
3.125040e-02 9.365628e-03 0.000000e+00
3.750141e-02 9.365630e-03 0.000000e+00
4.375242e-02 9.365635e-03 0.000000e+00
5.000343e-02 9.365642e-03 0.000000e+00
-4.861345e-06 1.248748e-02 0.000000e+00
3.120644e-03 1.248748e-02 0.000000e+00
6.246150e-03 1.248749e-02 0.000000e+00
9.371656e-03 1.248749e-02 0.000000e+00
1.249716e-02 1.248749e-02 0.000000e+00
1.562267e-02 1.248749e-02 0.000000e+00
1.874817e-02 1.248750e-02 0.000000e+00
2.187368e-02 1.248750e-02 0.000000e+00
2.499918e-02 1.248750e-02 0.000000e+00
2.812469e-02 1.248750e-02 0.000000e+00
3.125019e-02 1.248750e-02 0.000000e+00
3.437570e-02 1.248751e-02 0.000000e+00
3.750120e-02 1.248751e-02 0.000000e+00
4.062671e-02 1.248751e-02 0.000000e+00
4.375222e-02 1.248751e-02 0.000000e+00
4.687772e-02 1.248752e-02 0.000000e+00
5.000322e-02 1.248752e-02 0.000000e+00
-5.066959e-06 1.560935e-02 0.000000e+00
6.245945e-03 1.560936e-02 0.000000e+00
1.249696e-02 1.560937e-02 0.000000e+00
1.874797e-02 1.560937e-02 0.000000e+00
2.499898e-02 1.560937e-02 0.000000e+00
3.124999e-02 1.560938e-02 0.000000e+00
3.750100e-02 1.560938e-02 0.000000e+00
4.375201e-02 1.560939e-02 0.000000e+00
5.000302e-02 1.560940e-02 0.000000e+00
-5.272987e-06 1.873122e-02 0.000000e+00
3.120233e-03 1.873123e-02 0.000000e+00
6.245738e-03 1.873123e-02 0.000000e+00
9.371244e-03 1.873124e-02 0.000000e+00
1.249675e-02 1.873124e-02 0.000000e+00
1.562226e-02 1.873124e-02 0.000000e+00
1.874776e-02 1.873124e-02 0.000000e+00
2.187327e-02 1.873125e-02 0.000000e+00
2.499877e-02 1.873125e-02 0.000000e+00
2.812428e-02 1.873125e-02 0.000000e+00
3.124978e-02 1.873126e-02 0.000000e+00
3.437529e-02 1.873126e-02 0.000000e+00
3.750079e-02 1.873126e-02 0.000000e+00
4.062630e-02 1.873126e-02 0.000000e+00
4.375180e-02 1.873127e-02 0.000000e+00
4.687731e-02 1.873127e-02 0.000000e+00
5.000281e-02 1.873128e-02 0.000000e+00
-5.479353e-06 2.185309e-02 0.000000e+00
6.245532e-03 2.185310e-02 0.000000e+00
1.249654e-02 2.185311e-02 0.000000e+00
1.874756e-02 2.185312e-02 0.000000e+00
2.499857e-02 2.185312e-02 0.000000e+00
3.124958e-02 2.185313e-02 0.000000e+00
3.750059e-02 2.185314e-02 0.000000e+00
4.375160e-02 2.185315e-02 0.000000e+00
5.000261e-02 2.185315e-02 0.000000e+00
-5.685999e-06 2.497497e-02 0.000000e+00
3.119820e-03 2.497497e-02 0.000000e+00
6.245325e-03 2.497498e-02 0.000000e+00
9.370831e-03 2.497498e-02 0.000000e+00
1.249634e-02 2.497499e-02 0.000000e+00
1.562184e-02 2.497499e-02 0.000000e+00
1.874735e-02 2.497499e-02 0.000000e+00
2.187285e-02 2.497500e-02 0.000000e+00
2.499836e-02 2.497500e-02 0.000000e+00
2.812386e-02 2.497500e-02 0.000000e+00
3.124937e-02 2.497501e-02 0.000000e+00
3.437487e-02 2.497501e-02 0.000000e+00
3.750038e-02 2.497501e-02 0.000000e+00
4.062589e-02 2.497502e-02 0.000000e+00
4.375139e-02 2.497502e-02 0.000000e+00
4.687690e-02 2.497503e-02 0.000000e+00
5.000240e-02 2.497503e-02 0.000000e+00
-5.892934e-06 2.809684e-02 0.000000e+00
6.245119e-03 2.809685e-02 0.000000e+00
1.249613e-02 2.809686e-02 0.000000e+00
1.874714e-02 2.809687e-02 0.000000e+00
2.499815e-02 2.809688e-02 0.000000e+00
3.124916e-02 2.809688e-02 0.000000e+00
3.750017e-02 2.809689e-02 0.000000e+00
4.375118e-02 2.809690e-02 0.000000e+00
5.000219e-02 2.809691e-02 0.000000e+00
-6.100153e-06 3.121871e-02 0.000000e+00
3.119406e-03 3.121872e-02 0.000000e+00
6.244911e-03 3.121872e-02 0.000000e+00
9.370416e-03 3.121873e-02 0.000000e+00
1.249592e-02 3.121873e-02 0.000000e+00
1.562143e-02 3.121874e-02 0.000000e+00
1.874693e-02 3.121874e-02 0.000000e+00
2.187244e-02 3.121875e-02 0.000000e+00
2.499794e-02 3.121875e-02 0.000000e+00
2.812345e-02 3.121875e-02 0.000000e+00
3.124896e-02 3.121876e-02 0.000000e+00
3.437446e-02 3.121876e-02 0.000000e+00
3.749996e-02 3.121877e-02 0.000000e+00
4.062547e-02 3.121877e-02 0.000000e+00
4.375098e-02 3.121877e-02 0.000000e+00
4.687648e-02 3.121878e-02 0.000000e+00
5.000199e-02 3.121879e-02 0.000000e+00
-6.307547e-06 3.434059e-02 0.000000e+00
6.244704e-03 3.434060e-02 0.000000e+00
1.249571e-02 3.434061e-02 0.000000e+00
1.874673e-02 3.434062e-02 0.000000e+00
2.499774e-02 3.434062e-02 0.000000e+00
3.124875e-02 3.434063e-02 0.000000e+00
3.749976e-02 3.434064e-02 0.000000e+00
4.375077e-02 3.434065e-02 0.000000e+00
5.000178e-02 3.434066e-02 0.000000e+00
-6.515210e-06 3.746246e-02 0.000000e+00
3.118990e-03 3.746247e-02 0.000000e+00
6.244496e-03 3.746247e-02 0.000000e+00
9.370001e-03 3.746248e-02 0.000000e+00
1.249551e-02 3.746248e-02 0.000000e+00
1.562101e-02 3.746249e-02 0.000000e+00
1.874652e-02 3.746249e-02 0.000000e+00
2.187202e-02 3.746250e-02 0.000000e+00
2.499753e-02 3.746250e-02 0.000000e+00
2.812303e-02 3.746250e-02 0.000000e+00
3.124854e-02 3.746251e-02 0.000000e+00
3.437404e-02 3.746251e-02 0.000000e+00
3.749955e-02 3.746252e-02 0.000000e+00
4.062505e-02 3.746252e-02 0.000000e+00
4.375056e-02 3.746253e-02 0.000000e+00
4.687607e-02 3.746253e-02 0.000000e+00
5.000157e-02 3.746254e-02 0.000000e+00
-6.722959e-06 4.058433e-02 0.000000e+00
6.244288e-03 4.058435e-02 0.000000e+00
1.249530e-02 4.058436e-02 0.000000e+00
1.874631e-02 4.058437e-02 0.000000e+00
2.499732e-02 4.058437e-02 0.000000e+00
3.124833e-02 4.058438e-02 0.000000e+00
3.749934e-02 4.058439e-02 0.000000e+00
4.375035e-02 4.058440e-02 0.000000e+00
5.000136e-02 4.058442e-02 0.000000e+00
-6.930803e-06 4.370621e-02 0.000000e+00
3.118575e-03 4.370622e-02 0.000000e+00
6.244080e-03 4.370622e-02 0.000000e+00
9.369586e-03 4.370623e-02 0.000000e+00
1.249509e-02 4.370623e-02 0.000000e+00
1.562060e-02 4.370624e-02 0.000000e+00
1.874610e-02 4.370624e-02 0.000000e+00
2.187161e-02 4.370625e-02 0.000000e+00
2.499711e-02 4.370625e-02 0.000000e+00
2.812262e-02 4.370625e-02 0.000000e+00
3.124812e-02 4.370626e-02 0.000000e+00
3.437363e-02 4.370626e-02 0.000000e+00
3.749913e-02 4.370627e-02 0.000000e+00
4.062464e-02 4.370627e-02 0.000000e+00
4.375014e-02 4.370628e-02 0.000000e+00
4.687565e-02 4.370628e-02 0.000000e+00
5.000116e-02 4.370629e-02 0.000000e+00
-7.138736e-06 4.682808e-02 0.000000e+00
6.243872e-03 4.682809e-02 0.000000e+00
1.249488e-02 4.682811e-02 0.000000e+00
1.874589e-02 4.682812e-02 0.000000e+00
2.499690e-02 4.682812e-02 0.000000e+00
3.124792e-02 4.682813e-02 0.000000e+00
3.749892e-02 4.682814e-02 0.000000e+00
4.374994e-02 4.682815e-02 0.000000e+00
5.000095e-02 4.682817e-02 0.000000e+00
-7.346649e-06 4.994996e-02 0.000000e+00
3.118159e-03 4.994997e-02 0.000000e+00
6.243664e-03 4.994997e-02 0.000000e+00
9.369169e-03 4.994998e-02 0.000000e+00
1.249467e-02 4.994998e-02 0.000000e+00
1.562018e-02 4.994999e-02 0.000000e+00
1.874568e-02 4.994999e-02 0.000000e+00
2.187119e-02 4.995000e-02 0.000000e+00
2.499670e-02 4.995000e-02 0.000000e+00
2.812220e-02 4.995000e-02 0.000000e+00
3.124771e-02 4.995001e-02 0.000000e+00
3.437321e-02 4.995001e-02 0.000000e+00
3.749872e-02 4.995002e-02 0.000000e+00
4.062422e-02 4.995002e-02 0.000000e+00
4.374973e-02 4.995003e-02 0.000000e+00
4.687523e-02 4.995003e-02 0.000000e+00
5.000074e-02 4.995004e-02 0.000000e+00
-7.554479e-06 5.307183e-02 0.000000e+00
6.243456e-03 5.307185e-02 0.000000e+00
1.249447e-02 5.307186e-02 0.000000e+00
1.874548e-02 5.307187e-02 0.000000e+00
2.499649e-02 5.307188e-02 0.000000e+00
3.124750e-02 5.307188e-02 0.000000e+00
3.749851e-02 5.307189e-02 0.000000e+00
4.374952e-02 5.307190e-02 0.000000e+00
5.000053e-02 5.307192e-02 0.000000e+00
-7.762336e-06 5.619371e-02 0.000000e+00
3.117743e-03 5.619372e-02 0.000000e+00
6.243248e-03 5.619372e-02 0.000000e+00
9.368753e-03 5.619373e-02 0.000000e+00
1.249426e-02 5.619373e-02 0.000000e+00
1.561976e-02 5.619374e-02 0.000000e+00
1.874527e-02 5.619374e-02 0.000000e+00
2.187078e-02 5.619375e-02 0.000000e+00
2.499628e-02 5.619375e-02 0.000000e+00
2.812179e-02 5.619375e-02 0.000000e+00
3.124729e-02 5.619376e-02 0.000000e+00
3.437280e-02 5.619376e-02 0.000000e+00
3.749830e-02 5.619377e-02 0.000000e+00
4.062381e-02 5.619377e-02 0.000000e+00
4.374931e-02 5.619378e-02 0.000000e+00
4.687482e-02 5.619378e-02 0.000000e+00
5.000032e-02 5.619379e-02 0.000000e+00
-7.970165e-06 5.931558e-02 0.000000e+00
6.243040e-03 5.931560e-02 0.000000e+00
1.249405e-02 5.931561e-02 0.000000e+00
1.874506e-02 5.931562e-02 0.000000e+00
2.499607e-02 5.931563e-02 0.000000e+00
3.124708e-02 5.931563e-02 0.000000e+00
3.749809e-02 5.931564e-02 0.000000e+00
4.374911e-02 5.931565e-02 0.000000e+00
5.000012e-02 5.931567e-02 0.000000e+00
-8.177908e-06 6.243746e-02 0.000000e+00
3.117327e-03 6.243747e-02 0.000000e+00
6.242833e-03 6.243747e-02 0.000000e+00
9.368338e-03 6.243748e-02 0.000000e+00
1.249384e-02 6.243748e-02 0.000000e+00
1.561935e-02 6.243749e-02 0.000000e+00
1.874485e-02 6.243749e-02 0.000000e+00
2.187036e-02 6.243750e-02 0.000000e+00
2.499586e-02 6.243750e-02 0.000000e+00
2.812137e-02 6.243750e-02 0.000000e+00
3.124687e-02 6.243751e-02 0.000000e+00
3.437238e-02 6.243751e-02 0.000000e+00
3.749789e-02 6.243752e-02 0.000000e+00
4.062339e-02 6.243752e-02 0.000000e+00
4.374890e-02 6.243753e-02 0.000000e+00
4.687440e-02 6.243753e-02 0.000000e+00
4.999991e-02 6.243754e-02 0.000000e+00
-8.385528e-06 6.555934e-02 0.000000e+00
6.242625e-03 6.555935e-02 0.000000e+00
1.249364e-02 6.555936e-02 0.000000e+00
1.874465e-02 6.555936e-02 0.000000e+00
2.499566e-02 6.555937e-02 0.000000e+00
3.124667e-02 6.555938e-02 0.000000e+00
3.749768e-02 6.555939e-02 0.000000e+00
4.374869e-02 6.555940e-02 0.000000e+00
4.999970e-02 6.555941e-02 0.000000e+00
-8.592990e-06 6.868121e-02 0.000000e+00
3.116912e-03 6.868122e-02 0.000000e+00
6.242417e-03 6.868123e-02 0.000000e+00
9.367922e-03 6.868123e-02 0.000000e+00
1.249343e-02 6.868123e-02 0.000000e+00
1.561893e-02 6.868124e-02 0.000000e+00
1.874444e-02 6.868124e-02 0.000000e+00
2.186994e-02 6.868125e-02 0.000000e+00
2.499545e-02 6.868125e-02 0.000000e+00
2.812095e-02 6.868125e-02 0.000000e+00
3.124646e-02 6.868125e-02 0.000000e+00
3.437196e-02 6.868126e-02 0.000000e+00
3.749747e-02 6.868126e-02 0.000000e+00
4.062298e-02 6.868127e-02 0.000000e+00
4.374848e-02 6.868128e-02 0.000000e+00
4.687399e-02 6.868128e-02 0.000000e+00
4.999949e-02 6.868128e-02 0.000000e+00
-8.800243e-06 7.180309e-02 0.000000e+00
6.242210e-03 7.180310e-02 0.000000e+00
1.249322e-02 7.180311e-02 0.000000e+00
1.874423e-02 7.180312e-02 0.000000e+00
2.499524e-02 7.180312e-02 0.000000e+00
3.124625e-02 7.180313e-02 0.000000e+00
3.749726e-02 7.180314e-02 0.000000e+00
4.374827e-02 7.180315e-02 0.000000e+00
4.999929e-02 7.180316e-02 0.000000e+00
-9.007238e-06 7.492497e-02 0.000000e+00
3.116498e-03 7.492498e-02 0.000000e+00
6.242003e-03 7.492498e-02 0.000000e+00
9.367508e-03 7.492498e-02 0.000000e+00
1.249301e-02 7.492498e-02 0.000000e+00
1.561852e-02 7.492499e-02 0.000000e+00
1.874402e-02 7.492499e-02 0.000000e+00
2.186953e-02 7.492500e-02 0.000000e+00
2.499503e-02 7.492500e-02 0.000000e+00
2.812054e-02 7.492501e-02 0.000000e+00
3.124605e-02 7.492501e-02 0.000000e+00
3.437155e-02 7.492501e-02 0.000000e+00
3.749705e-02 7.492501e-02 0.000000e+00
4.062256e-02 7.492502e-02 0.000000e+00
4.374807e-02 7.492502e-02 0.000000e+00
4.687357e-02 7.492503e-02 0.000000e+00
4.999908e-02 7.492504e-02 0.000000e+00
-9.213942e-06 7.804684e-02 0.000000e+00
6.241796e-03 7.804686e-02 0.000000e+00
1.249281e-02 7.804687e-02 0.000000e+00
1.874382e-02 7.804687e-02 0.000000e+00
2.499483e-02 7.804687e-02 0.000000e+00
3.124584e-02 7.804688e-02 0.000000e+00
3.749685e-02 7.804689e-02 0.000000e+00
4.374786e-02 7.804690e-02 0.000000e+00
4.999887e-02 7.804690e-02 0.000000e+00
-9.420351e-06 8.116873e-02 0.000000e+00
3.116085e-03 8.116873e-02 0.000000e+00
6.241590e-03 8.116873e-02 0.000000e+00
9.367094e-03 8.116873e-02 0.000000e+00
1.249260e-02 8.116874e-02 0.000000e+00
1.561811e-02 8.116874e-02 0.000000e+00
1.874361e-02 8.116875e-02 0.000000e+00
2.186912e-02 8.116875e-02 0.000000e+00
2.499462e-02 8.116875e-02 0.000000e+00
2.812013e-02 8.116876e-02 0.000000e+00
3.124563e-02 8.116876e-02 0.000000e+00
3.437114e-02 8.116876e-02 0.000000e+00
3.749664e-02 8.116876e-02 0.000000e+00
4.062215e-02 8.116876e-02 0.000000e+00
4.374766e-02 8.116877e-02 0.000000e+00
4.687316e-02 8.116877e-02 0.000000e+00
4.999867e-02 8.116878e-02 0.000000e+00
-9.626395e-06 8.429060e-02 0.000000e+00
6.241383e-03 8.429061e-02 0.000000e+00
1.249239e-02 8.429062e-02 0.000000e+00
1.874341e-02 8.429062e-02 0.000000e+00
2.499441e-02 8.429062e-02 0.000000e+00
3.124543e-02 8.429063e-02 0.000000e+00
3.749644e-02 8.429063e-02 0.000000e+00
4.374745e-02 8.429064e-02 0.000000e+00
4.999846e-02 8.429065e-02 0.000000e+00
-9.832001e-06 8.741248e-02 0.000000e+00
3.115673e-03 8.741248e-02 0.000000e+00
6.241178e-03 8.741248e-02 0.000000e+00
9.366683e-03 8.741249e-02 0.000000e+00
1.249219e-02 8.741249e-02 0.000000e+00
1.561769e-02 8.741249e-02 0.000000e+00
1.874320e-02 8.741250e-02 0.000000e+00
2.186870e-02 8.741250e-02 0.000000e+00
2.499421e-02 8.741250e-02 0.000000e+00
2.811971e-02 8.741250e-02 0.000000e+00
3.124522e-02 8.741251e-02 0.000000e+00
3.437072e-02 8.741251e-02 0.000000e+00
3.749623e-02 8.741251e-02 0.000000e+00
4.062174e-02 8.741251e-02 0.000000e+00
4.374724e-02 8.741251e-02 0.000000e+00
4.687275e-02 8.741251e-02 0.000000e+00
4.999825e-02 8.741252e-02 0.000000e+00
-1.003719e-05 9.053436e-02 0.000000e+00
6.240973e-03 9.053437e-02 0.000000e+00
1.249198e-02 9.053437e-02 0.000000e+00
1.874299e-02 9.053437e-02 0.000000e+00
2.499400e-02 9.053437e-02 0.000000e+00
3.124502e-02 9.053437e-02 0.000000e+00
3.749603e-02 9.053438e-02 0.000000e+00
4.374704e-02 9.053438e-02 0.000000e+00
4.999805e-02 9.053439e-02 0.000000e+00
-1.024204e-05 9.365623e-02 0.000000e+00
3.115263e-03 9.365624e-02 0.000000e+00
6.240768e-03 9.365624e-02 0.000000e+00
9.366273e-03 9.365624e-02 0.000000e+00
1.249178e-02 9.365625e-02 0.000000e+00
1.561728e-02 9.365625e-02 0.000000e+00
1.874279e-02 9.365625e-02 0.000000e+00
2.186829e-02 9.365625e-02 0.000000e+00
2.499380e-02 9.365625e-02 0.000000e+00
2.811931e-02 9.365625e-02 0.000000e+00
3.124481e-02 9.365625e-02 0.000000e+00
3.437031e-02 9.365625e-02 0.000000e+00
3.749582e-02 9.365626e-02 0.000000e+00
4.062133e-02 9.365626e-02 0.000000e+00
4.374683e-02 9.365626e-02 0.000000e+00
4.687234e-02 9.365626e-02 0.000000e+00
4.999784e-02 9.365626e-02 0.000000e+00
-1.044631e-05 9.677812e-02 0.000000e+00
6.240564e-03 9.677812e-02 0.000000e+00
1.249157e-02 9.677812e-02 0.000000e+00
1.874259e-02 9.677812e-02 0.000000e+00
2.499360e-02 9.677812e-02 0.000000e+00
3.124461e-02 9.677812e-02 0.000000e+00
3.749562e-02 9.677812e-02 0.000000e+00
4.374663e-02 9.677812e-02 0.000000e+00
4.999764e-02 9.677813e-02 0.000000e+00
-1.064957e-05 9.990000e-02 0.000000e+00
3.114855e-03 9.990000e-02 0.000000e+00
6.240360e-03 9.990000e-02 0.000000e+00
9.365866e-03 9.990000e-02 0.000000e+00
1.249137e-02 9.990000e-02 0.000000e+00
1.561688e-02 9.990000e-02 0.000000e+00
1.874238e-02 9.990000e-02 0.000000e+00
2.186789e-02 9.990000e-02 0.000000e+00
2.499339e-02 9.990000e-02 0.000000e+00
2.811890e-02 9.990000e-02 0.000000e+00
3.124440e-02 9.990000e-02 0.000000e+00
3.436991e-02 9.990000e-02 0.000000e+00
3.749542e-02 9.990000e-02 0.000000e+00
4.062092e-02 9.990000e-02 0.000000e+00
4.374642e-02 9.990000e-02 0.000000e+00
4.687193e-02 9.990000e-02 0.000000e+00
4.999743e-02 9.990000e-02 0.000000e+00
</DataArray>
</Points>
<Cells>
<DataArray Name="connectivity" type="Int32" format="ascii">
0 2 28 26
2 4 30 28
4 6 32 30
6 8 34 32
8 10 36 34
10 12 38 36
12 14 40 38
14 16 42 40
26 28 54 52
28 30 56 54
30 32 58 56
32 34 60 58
34 36 62 60
36 38 64 62
38 40 66 64
40 42 68 66
52 54 80 78
54 56 82 80
56 58 84 82
58 60 86 84
60 62 88 86
62 64 90 88
64 66 92 90
66 68 94 92
78 80 106 104
80 82 108 106
82 84 110 108
84 86 112 110
86 88 114 112
88 90 116 114
90 92 118 116
92 94 120 118
104 106 132 130
106 108 134 132
108 110 136 134
110 112 138 136
112 114 140 138
114 116 142 140
116 118 144 142
118 120 146 144
130 132 158 156
132 134 160 158
134 136 162 160
136 138 164 162
138 140 166 164
140 142 168 166
142 144 170 168
144 146 172 170
156 158 184 182
158 160 186 184
160 162 188 186
162 164 190 188
164 166 192 190
166 168 194 192
168 170 196 194
170 172 198 196
182 184 210 208
184 186 212 210
186 188 214 212
188 190 216 214
190 192 218 216
192 194 220 218
194 196 222 220
196 198 224 222
208 210 236 234
210 212 238 236
212 214 240 238
214 216 242 240
216 218 244 242
218 220 246 244
220 222 248 246
222 224 250 248
234 236 262 260
236 238 264 262
238 240 266 264
240 242 268 266
242 244 270 268
244 246 272 270
246 248 274 272
248 250 276 274
260 262 288 286
262 264 290 288
264 266 292 290
266 268 294 292
268 270 296 294
270 272 298 296
272 274 300 298
274 276 302 300
286 288 314 312
288 290 316 314
290 292 318 316
292 294 320 318
294 296 322 320
296 298 324 322
298 300 326 324
300 302 328 326
312 314 340 338
314 316 342 340
316 318 344 342
318 320 346 344
320 322 348 346
322 324 350 348
324 326 352 350
326 328 354 352
338 340 366 364
340 342 368 366
342 344 370 368
344 346 372 370
346 348 374 372
348 350 376 374
350 352 378 376
352 354 380 378
364 366 392 390
366 368 394 392
368 370 396 394
370 372 398 396
372 374 400 398
374 376 402 400
376 378 404 402
378 380 406 404
390 392 418 416
392 394 420 418
394 396 422 420
396 398 424 422
398 400 426 424
400 402 428 426
402 404 430 428
404 406 432 430
</DataArray>
<DataArray Name="offsets" type="Int32" format="ascii">
4
8
12
16
20
24
28
32
36
40
44
48
52
56
60
64
68
72
76
80
84
88
92
96
100
104
108
112
116
120
124
128
132
136
140
144
148
152
156
160
164
168
172
176
180
184
188
192
196
200
204
208
212
216
220
224
228
232
236
240
244
248
252
256
260
264
268
272
276
280
284
288
292
296
300
304
308
312
316
320
324
328
332
336
340
344
348
352
356
360
364
368
372
376
380
384
388
392
396
400
404
408
412
416
420
424
428
432
436
440
444
448
452
456
460
464
468
472
476
480
484
488
492
496
500
504
508
512
</DataArray>
<DataArray Name="types" type="UInt8" format="ascii">
9
9
9
9
9
9
9
9
9
9
9
9
9
9
9
9
9
9
9
9
9
9
9
9
9
9
9
9
9
9
9
9
9
9
9
9
9
9
9
9
9
9
9
9
9
9
9
9
9
9
9
9
9
9
9
9
9
9
9
9
9
9
9
9
9
9
9
9
9
9
9
9
9
9
9
9
9
9
9
9
9
9
9
9
9
9
9
9
9
9
9
9
9
9
9
9
9
9
9
9
9
9
9
9
9
9
9
9
9
9
9
9
9
9
9
9
9
9
9
9
9
9
9
9
9
9
9
9
</DataArray>
</Cells>
<CellData>
<DataArray Name="e" type="Float64" NumberOfComponents="1" format="ascii">
1.740220e-01
1.740226e-01
1.740230e-01
1.740233e-01
1.740237e-01
1.740241e-01
1.740246e-01
1.740251e-01
1.740223e-01
1.740227e-01
1.740230e-01
1.740234e-01
1.740237e-01
1.740241e-01
1.740244e-01
1.740248e-01
1.740226e-01
1.740228e-01
1.740231e-01
1.740234e-01
1.740237e-01
1.740240e-01
1.740243e-01
1.740246e-01
1.740228e-01
1.740230e-01
1.740232e-01
1.740234e-01
1.740237e-01
1.740239e-01
1.740242e-01
1.740244e-01
1.740229e-01
1.740231e-01
1.740233e-01
1.740234e-01
1.740237e-01
1.740239e-01
1.740240e-01
1.740242e-01
1.740231e-01
1.740232e-01
1.740234e-01
1.740235e-01
1.740237e-01
1.740238e-01
1.740239e-01
1.740240e-01
1.740233e-01
1.740234e-01
1.740234e-01
1.740235e-01
1.740236e-01
1.740237e-01
1.740238e-01
1.740238e-01
1.740235e-01
1.740236e-01
1.740236e-01
1.740236e-01
1.740236e-01
1.740236e-01
1.740236e-01
1.740236e-01
1.740236e-01
1.740236e-01
1.740236e-01
1.740236e-01
1.740236e-01
1.740236e-01
1.740236e-01
1.740235e-01
1.740238e-01
1.740237e-01
1.740237e-01
1.740236e-01
1.740235e-01
1.740234e-01
1.740234e-01
1.740233e-01
1.740240e-01
1.740239e-01
1.740238e-01
1.740237e-01
1.740235e-01
1.740234e-01
1.740232e-01
1.740231e-01
1.740242e-01
1.740240e-01
1.740239e-01
1.740237e-01
1.740234e-01
1.740233e-01
1.740231e-01
1.740229e-01
1.740244e-01
1.740242e-01
1.740239e-01
1.740237e-01
1.740234e-01
1.740232e-01
1.740230e-01
1.740228e-01
1.740246e-01
1.740243e-01
1.740240e-01
1.740237e-01
1.740234e-01
1.740231e-01
1.740228e-01
1.740226e-01
1.740248e-01
1.740245e-01
1.740241e-01
1.740237e-01
1.740234e-01
1.740230e-01
1.740227e-01
1.740223e-01
1.740252e-01
1.740246e-01
1.740241e-01
1.740237e-01
1.740233e-01
1.740230e-01
1.740226e-01
1.740220e-01
</DataArray>
<DataArray Name="shear" type="Float64" NumberOfComponents="1" format="ascii">
1.165032e-03
1.164356e-03
1.163970e-03
1.163691e-03
1.163394e-03
1.163098e-03
1.162700e-03
1.161990e-03
1.164827e-03
1.164359e-03
1.163989e-03
1.163696e-03
1.163414e-03
1.163095e-03
1.162699e-03
1.162181e-03
1.164595e-03
1.164285e-03
1.163975e-03
1.163700e-03
1.163412e-03
1.163120e-03
1.162776e-03
1.162417e-03
1.164390e-03
1.164158e-03
1.163921e-03
1.163676e-03
1.163417e-03
1.163178e-03
1.162909e-03
1.162625e-03
1.164183e-03
1.164010e-03
1.163823e-03
1.163647e-03
1.163440e-03
1.163253e-03
1.163049e-03
1.162844e-03
1.163978e-03
1.163854e-03
1.163732e-03
1.163607e-03
1.163464e-03
1.163338e-03
1.163200e-03
1.163054e-03
1.163782e-03
1.163705e-03
1.163635e-03
1.163578e-03
1.163503e-03
1.163436e-03
1.163356e-03
1.163273e-03
1.163571e-03
1.163555e-03
1.163540e-03
1.163530e-03
1.163536e-03
1.163544e-03
1.163510e-03
1.163471e-03
1.163449e-03
1.163490e-03
1.163525e-03
1.163549e-03
1.163549e-03
1.163552e-03
1.163569e-03
1.163598e-03
1.163249e-03
1.163336e-03
1.163420e-03
1.163494e-03
1.163576e-03
1.163649e-03
1.163726e-03
1.163790e-03
1.163042e-03
1.163187e-03
1.163332e-03
1.163462e-03
1.163618e-03
1.163746e-03
1.163867e-03
1.163987e-03
1.162838e-03
1.163043e-03
1.163257e-03
1.163444e-03
1.163644e-03
1.163826e-03
1.164009e-03
1.164188e-03
1.162632e-03
1.162909e-03
1.163177e-03
1.163426e-03
1.163681e-03
1.163905e-03
1.164152e-03
1.164394e-03
1.162424e-03
1.162794e-03
1.163131e-03
1.163406e-03
1.163694e-03
1.163967e-03
1.164281e-03
1.164592e-03
1.162198e-03
1.162724e-03
1.163106e-03
1.163398e-03
1.163700e-03
1.163982e-03
1.164346e-03
1.164824e-03
1.162010e-03
1.162715e-03
1.163106e-03
1.163401e-03
1.163678e-03
1.163958e-03
1.164344e-03
1.165011e-03
</DataArray>
</CellData>
</Piece>
</UnstructuredGrid>
</VTKFile>
